{
  "baserow_template_version":1,
  "name":"Political Campaign Contributions",
  "icon":"donate",
  "keywords":[
    "politics",
    "campaign",
    "government",
    "public",
    "service",
    "contributions",
    "donations",
    "donate",
    "transaction"
  ],
  "categories":[
    "Professional"
  ],
  "export":[
    {
      "id": 15234,
      "name": "Political Campaign Contributions",
      "order": 1,
      "type": "database",
      "tables": [
        {
          "id": 30390,
          "name": "Contacts",
          "order": 1,
          "fields": [
            {
              "id": 161228,
              "type": "text",
              "name": "Name",
              "order": 0,
              "primary": true,
              "text_default": ""
            },
            {
              "id": 161290,
              "type": "single_select",
              "name": "Entity Type",
              "order": 3,
              "primary": false,
              "select_options": [
                {
                  "id": 15030,
                  "value": "Individual",
                  "color": "green",
                  "order": 0
                },
                {
                  "id": 15031,
                  "value": "Company",
                  "color": "blue",
                  "order": 1
                }
              ]
            },
            {
              "id": 161292,
              "type": "link_row",
              "name": "Donations",
              "order": 4,
              "primary": false,
              "link_row_table_id": 30389,
              "link_row_related_field_id": 161291
            },
            {
              "id": 161295,
              "type": "email",
              "name": "Email",
              "order": 5,
              "primary": false
            },
            {
              "id": 161296,
              "type": "phone_number",
              "name": "Phone",
              "order": 6,
              "primary": false
            },
            {
              "id": 161297,
              "type": "text",
              "name": "Street Address",
              "order": 7,
              "primary": false,
              "text_default": ""
            },
            {
              "id": 161298,
              "type": "number",
              "name": "Lifetime",
              "order": 8,
              "primary": false,
              "number_decimal_places": 0,
              "number_negative": false
            },
            {
              "id": 161299,
              "type": "text",
              "name": "City",
              "order": 9,
              "primary": false,
              "text_default": ""
            },
            {
              "id": 161300,
              "type": "text",
              "name": "State",
              "order": 10,
              "primary": false,
              "text_default": ""
            },
            {
              "id": 161301,
              "type": "number",
              "name": "Zip Code",
              "order": 11,
              "primary": false,
              "number_decimal_places": 0,
              "number_negative": false
            },
            {
              "id": 161302,
              "type": "link_row",
              "name": "Preferred Channel",
              "order": 12,
              "primary": false,
              "link_row_table_id": 30391,
              "link_row_related_field_id": 161303
            },
            {
              "id": 162706,
              "type": "single_select",
              "name": "Party",
              "order": 13,
              "primary": false,
              "select_options": [
                {
                  "id": 15166,
                  "value": "Democrat",
                  "color": "dark-blue",
                  "order": 0
                },
                {
                  "id": 15167,
                  "value": "Republican",
                  "color": "dark-red",
                  "order": 1
                },
                {
                  "id": 15168,
                  "value": "Green",
                  "color": "dark-green",
                  "order": 2
                },
                {
                  "id": 15169,
                  "value": "Independent",
                  "color": "light-gray",
                  "order": 3
                }
              ]
            },
            {
              "id": 162710,
              "type": "file",
              "name": "Image",
              "order": 14,
              "primary": false
            }
          ],
          "views": [
            {
              "id": 34341,
              "type": "grid",
              "name": "All Contacts",
              "order": 1,
              "filter_type": "AND",
              "filters_disabled": false,
              "filters": [],
              "sortings": [
                {
                  "id": 3276,
                  "field_id": 161228,
                  "order": "ASC"
                }
              ],
              "field_options": [
                {
                  "id": 169472,
                  "field_id": 161228,
                  "width": 153,
                  "hidden": false,
                  "order": 12
                },
                {
                  "id": 169529,
                  "field_id": 161290,
                  "width": 128,
                  "hidden": false,
                  "order": 0
                },
                {
                  "id": 169531,
                  "field_id": 161292,
                  "width": 373,
                  "hidden": false,
                  "order": 9
                },
                {
                  "id": 169534,
                  "field_id": 161295,
                  "width": 200,
                  "hidden": false,
                  "order": 8
                },
                {
                  "id": 169535,
                  "field_id": 161296,
                  "width": 115,
                  "hidden": false,
                  "order": 7
                },
                {
                  "id": 169536,
                  "field_id": 161297,
                  "width": 181,
                  "hidden": false,
                  "order": 3
                },
                {
                  "id": 169537,
                  "field_id": 161298,
                  "width": 111,
                  "hidden": false,
                  "order": 10
                },
                {
                  "id": 169538,
                  "field_id": 161299,
                  "width": 149,
                  "hidden": false,
                  "order": 4
                },
                {
                  "id": 169539,
                  "field_id": 161300,
                  "width": 113,
                  "hidden": false,
                  "order": 5
                },
                {
                  "id": 169540,
                  "field_id": 161301,
                  "width": 115,
                  "hidden": false,
                  "order": 6
                },
                {
                  "id": 169541,
                  "field_id": 161302,
                  "width": 179,
                  "hidden": false,
                  "order": 11
                },
                {
                  "id": 171800,
                  "field_id": 162706,
                  "width": 115,
                  "hidden": false,
                  "order": 2
                },
                {
                  "id": 171804,
                  "field_id": 162710,
                  "width": 105,
                  "hidden": false,
                  "order": 1
                }
              ]
            },
            {
              "id": 34647,
              "type": "grid",
              "name": "Individuals",
              "order": 2,
              "filter_type": "AND",
              "filters_disabled": false,
              "filters": [
                {
                  "id": 7249,
                  "field_id": 161290,
                  "type": "single_select_equal",
                  "value": "15030"
                }
              ],
              "sortings": [
                {
                  "id": 3403,
                  "field_id": 161298,
                  "order": "DESC"
                }
              ],
              "field_options": [
                {
                  "id": 175733,
                  "field_id": 161228,
                  "width": 147,
                  "hidden": false,
                  "order": 12
                },
                {
                  "id": 175734,
                  "field_id": 161290,
                  "width": 132,
                  "hidden": false,
                  "order": 0
                },
                {
                  "id": 175735,
                  "field_id": 161292,
                  "width": 225,
                  "hidden": false,
                  "order": 9
                },
                {
                  "id": 175736,
                  "field_id": 161295,
                  "width": 200,
                  "hidden": false,
                  "order": 8
                },
                {
                  "id": 175737,
                  "field_id": 161296,
                  "width": 117,
                  "hidden": false,
                  "order": 7
                },
                {
                  "id": 175738,
                  "field_id": 161297,
                  "width": 194,
                  "hidden": false,
                  "order": 3
                },
                {
                  "id": 175739,
                  "field_id": 161298,
                  "width": 112,
                  "hidden": false,
                  "order": 10
                },
                {
                  "id": 175740,
                  "field_id": 161299,
                  "width": 151,
                  "hidden": false,
                  "order": 4
                },
                {
                  "id": 175741,
                  "field_id": 161300,
                  "width": 120,
                  "hidden": false,
                  "order": 5
                },
                {
                  "id": 175742,
                  "field_id": 161301,
                  "width": 119,
                  "hidden": false,
                  "order": 6
                },
                {
                  "id": 175743,
                  "field_id": 161302,
                  "width": 200,
                  "hidden": false,
                  "order": 11
                },
                {
                  "id": 175744,
                  "field_id": 162706,
                  "width": 120,
                  "hidden": false,
                  "order": 2
                },
                {
                  "id": 175745,
                  "field_id": 162710,
                  "width": 100,
                  "hidden": false,
                  "order": 1
                }
              ]
            },
            {
              "id": 34648,
              "type": "grid",
              "name": "Companies",
              "order": 3,
              "filter_type": "AND",
              "filters_disabled": false,
              "filters": [
                {
                  "id": 7250,
                  "field_id": 161290,
                  "type": "single_select_equal",
                  "value": "15031"
                }
              ],
              "sortings": [
                {
                  "id": 3404,
                  "field_id": 161298,
                  "order": "DESC"
                }
              ],
              "field_options": [
                {
                  "id": 175746,
                  "field_id": 161228,
                  "width": 156,
                  "hidden": false,
                  "order": 12
                },
                {
                  "id": 175747,
                  "field_id": 161290,
                  "width": 135,
                  "hidden": false,
                  "order": 0
                },
                {
                  "id": 175748,
                  "field_id": 161292,
                  "width": 200,
                  "hidden": false,
                  "order": 9
                },
                {
                  "id": 175749,
                  "field_id": 161295,
                  "width": 186,
                  "hidden": false,
                  "order": 8
                },
                {
                  "id": 175750,
                  "field_id": 161296,
                  "width": 115,
                  "hidden": false,
                  "order": 7
                },
                {
                  "id": 175751,
                  "field_id": 161297,
                  "width": 179,
                  "hidden": false,
                  "order": 3
                },
                {
                  "id": 175752,
                  "field_id": 161298,
                  "width": 116,
                  "hidden": false,
                  "order": 10
                },
                {
                  "id": 175753,
                  "field_id": 161299,
                  "width": 105,
                  "hidden": false,
                  "order": 4
                },
                {
                  "id": 175754,
                  "field_id": 161300,
                  "width": 103,
                  "hidden": false,
                  "order": 5
                },
                {
                  "id": 175755,
                  "field_id": 161301,
                  "width": 116,
                  "hidden": false,
                  "order": 6
                },
                {
                  "id": 175756,
                  "field_id": 161302,
                  "width": 176,
                  "hidden": false,
                  "order": 11
                },
                {
                  "id": 175757,
                  "field_id": 162706,
                  "width": 120,
                  "hidden": false,
                  "order": 2
                },
                {
                  "id": 175758,
                  "field_id": 162710,
                  "width": 100,
                  "hidden": false,
                  "order": 1
                }
              ]
            }
          ],
          "rows": [
            {
              "id": 1,
              "order": "1.00000000000000000000",
              "field_161228": "Patsy Norman",
              "field_161290": 15030,
              "field_161292": [
                1,
                17
              ],
              "field_161295": "patsynorman45@email.com",
              "field_161296": "215-939-3328",
              "field_161297": "344 Hiddenview Drive",
              "field_161298": "900",
              "field_161299": "Eagleville",
              "field_161300": "Pennsylvania",
              "field_161301": "19403",
              "field_161302": [
                1
              ],
              "field_162706": 15166,
              "field_162710": [
                {
                  "name": "cydVrt3dpU1iAH8xHXw8xpspYMyLsNUa_6b788931622762c8bac32153e5100cd8ffebb81f11e1406c4da33fffb5336f37.jpeg",
                  "visible_name": "Patsy Norman.jpeg",
                  "original_name": "Patsy Norman.jpeg"
                }
              ]
            },
            {
              "id": 2,
              "order": "2.00000000000000000000",
              "field_161228": "Frankie Mitchel",
              "field_161290": 15030,
              "field_161292": [
                2,
                18
              ],
              "field_161295": "frankmitch931@email.com",
              "field_161296": "704-769-3633",
              "field_161297": "4260 Harry Place",
              "field_161298": "850",
              "field_161299": "Charlotte",
              "field_161300": "North Carolina",
              "field_161301": "28202",
              "field_161302": [
                2
              ],
              "field_162706": 15167,
              "field_162710": [
                {
                  "name": "J1g38ZJ1QWfNJjauMXCZ59kfGLdLdSl5_143d5bcde8f9276b8b86eca5c097714a64802e64a5b29728b0a1ae896b7b59ac.jpeg",
                  "visible_name": "Frankie Mitchel.jpeg",
                  "original_name": "Frankie Mitchel.jpeg"
                }
              ]
            },
            {
              "id": 3,
              "order": "3.00000000000000000000",
              "field_161228": "Georgia Holloway",
              "field_161290": 15030,
              "field_161292": [
                3,
                19,
                29
              ],
              "field_161295": "georgia@holloway.co",
              "field_161296": "216-377-8642",
              "field_161297": "4260 Glenwood Avenue",
              "field_161298": "850",
              "field_161299": "Mansfield",
              "field_161300": "Georgia",
              "field_161301": "30055",
              "field_161302": [
                3
              ],
              "field_162706": 15168,
              "field_162710": [
                {
                  "name": "wTOtvl4cp72tKTAyg8dBq0rUuGOLCqll_07c5362d213d86989fdb1c161c8b6bf6ba6292af8eddfcc1239140c402592e31.jpeg",
                  "visible_name": "Georgia Holloway.jpeg",
                  "original_name": "Georgia Holloway.jpeg"
                }
              ]
            },
            {
              "id": 4,
              "order": "4.00000000000000000000",
              "field_161228": "Jeanette McBride",
              "field_161290": 15030,
              "field_161292": [
                4,
                20
              ],
              "field_161295": "idreamofjeanie@email.com",
              "field_161296": "315-470-9614",
              "field_161297": "4429 Buckhannan Avenue",
              "field_161298": "2525",
              "field_161299": "Syracuse",
              "field_161300": "New York",
              "field_161301": "13202",
              "field_161302": [
                3,
                6
              ],
              "field_162706": 15169,
              "field_162710": [
                {
                  "name": "am2dm0mt5BvfTqa5HeVmFRLYZsGXQ9MF_58c48525ec08b0765bc9e4cbe0b9427b6f9f975766e263c8a3080e3e3b49acee.jpeg",
                  "visible_name": "Jeanette McBride.jpeg",
                  "original_name": "Jeanette McBride.jpeg"
                }
              ]
            },
            {
              "id": 5,
              "order": "5.00000000000000000000",
              "field_161228": "Jennifer Barton",
              "field_161290": 15030,
              "field_161292": [
                5,
                21
              ],
              "field_161295": "jenbart09@email.com",
              "field_161296": "262-585-0059",
              "field_161297": "4508 Fairfield Road",
              "field_161298": "1200",
              "field_161299": "Sheboygan Falls",
              "field_161300": "Wisconsin",
              "field_161301": "53085",
              "field_161302": [
                4
              ],
              "field_162706": 15166,
              "field_162710": [
                {
                  "name": "Tz1FvirTG76Y1r90lCcvggEUghytGNSk_67d114c1318450e649ab2dc8375a59bf95a27019cb034f1decab70d51c77d10c.jpeg",
                  "visible_name": "Jennifer Barton.jpeg",
                  "original_name": "Jennifer Barton.jpeg"
                }
              ]
            },
            {
              "id": 6,
              "order": "6.00000000000000000000",
              "field_161228": "Nadine Baird",
              "field_161290": 15030,
              "field_161292": [
                6,
                22
              ],
              "field_161295": "nadine3@baird.net",
              "field_161296": "770-303-0324",
              "field_161297": "3060 Fowler Avenue",
              "field_161298": "650",
              "field_161299": "Marietta",
              "field_161300": "Georgie",
              "field_161301": "30067",
              "field_161302": [
                5
              ],
              "field_162706": 15169,
              "field_162710": [
                {
                  "name": "ePKXy8OTuF7hKWxHzQwDFmE6eQeneeJK_f2dd578232b70e5ca7f4e7dd20cf2ec8015d07b0825669696f78df2ac829427f.jpeg",
                  "visible_name": "Nadine Baird.jpeg",
                  "original_name": "Nadine Baird.jpeg"
                }
              ]
            },
            {
              "id": 7,
              "order": "7.00000000000000000000",
              "field_161228": "Heather Sanchez",
              "field_161290": 15030,
              "field_161292": [
                7,
                23,
                37
              ],
              "field_161295": "heather.sanchez@email.com",
              "field_161296": "248-217-3026",
              "field_161297": "787 Bobcat Drive",
              "field_161298": "450",
              "field_161299": "Bloomfield Township",
              "field_161300": "Michigan",
              "field_161301": "48302",
              "field_161302": [
                1
              ],
              "field_162706": 15169,
              "field_162710": [
                {
                  "name": "QtWMzSf6swy9HHhOZZW4zzg9KAGChAiQ_71c51fddf86497bea1f0bae4a6eef15549ce55d29b10269f7b5cbd9acef8b55b.jpeg",
                  "visible_name": "Heather Sanchez.jpeg",
                  "original_name": "Heather Sanchez.jpeg"
                }
              ]
            },
            {
              "id": 8,
              "order": "8.00000000000000000000",
              "field_161228": "Sarah Mann",
              "field_161290": 15030,
              "field_161292": [
                8,
                24
              ],
              "field_161295": "sarahsays13@email.com",
              "field_161296": "858-815-7553",
              "field_161297": "4922 Hood Avenue",
              "field_161298": "750",
              "field_161299": "Dolton",
              "field_161300": "Illinois",
              "field_161301": "60419",
              "field_161302": [
                4,
                6
              ],
              "field_162706": 15168,
              "field_162710": [
                {
                  "name": "akliT9h0gHj9JoiKWSFbTnOix3k3xROD_9eefcb94168bf8ae250844786dc94e04ca37466343a2c570129b385eda5bf497.jpeg",
                  "visible_name": "Sarah Mann.jpeg",
                  "original_name": "Sarah Mann.jpeg"
                }
              ]
            },
            {
              "id": 9,
              "order": "9.00000000000000000000",
              "field_161228": "Ernest Daley",
              "field_161290": 15030,
              "field_161292": [
                9,
                25,
                38,
                40
              ],
              "field_161295": "ernestdaley@nepemail.com",
              "field_161296": "239-263-3368",
              "field_161297": "1965 Owen Lane",
              "field_161298": "1100",
              "field_161299": "Naples",
              "field_161300": "Florida",
              "field_161301": "33940",
              "field_161302": [
                3
              ],
              "field_162706": 15169,
              "field_162710": [
                {
                  "name": "rjNmR26U03BDnjeExMmqxZqwLmHohTuK_2c07a51b6e9fd8c0928712b303854129d77de48efcadb047199f9e352a593a40.jpeg",
                  "visible_name": "Ernest Daley.jpeg",
                  "original_name": "Ernest Daley.jpeg"
                }
              ]
            },
            {
              "id": 10,
              "order": "10.00000000000000000000",
              "field_161228": "Joan Magee",
              "field_161290": 15030,
              "field_161292": [
                10,
                26,
                39
              ],
              "field_161295": "joanmag5@email.com",
              "field_161296": "260-416-1535",
              "field_161297": "402 Cessna Drive",
              "field_161298": "1300",
              "field_161299": "Fort Wayne",
              "field_161300": "Indiana",
              "field_161301": "46818",
              "field_161302": [
                4,
                6
              ],
              "field_162706": 15166,
              "field_162710": [
                {
                  "name": "LO65dAH9lcevYcmFUhqn94stPVv5UDIq_2776cf9a1064f133d000d95a96ddb25778951dfd3b7bdf09656912231bd88424.jpeg",
                  "visible_name": "Joan Magee.jpeg",
                  "original_name": "Joan Magee.jpeg"
                }
              ]
            },
            {
              "id": 11,
              "order": "11.00000000000000000000",
              "field_161228": "Antimbo LLC",
              "field_161290": 15031,
              "field_161292": [
                11,
                27
              ],
              "field_161295": "hello@antimbo.llc",
              "field_161296": "262-740-7101",
              "field_161297": "214 Joseph Street",
              "field_161298": "6000",
              "field_161299": "Delavan",
              "field_161300": "Wisconsin",
              "field_161301": "53115",
              "field_161302": [
                3
              ],
              "field_162706": 15168,
              "field_162710": [
                {
                  "name": "FmgL7lSBNm4J5QscDyHFnprJFAXBIRSO_ae1f0fa494fd5df703b749705e8bb61cafbcb9dc758866ed060823611e2906dc.jpg",
                  "visible_name": "Antimbo LLC.jpg",
                  "original_name": "Antimbo LLC.jpg"
                }
              ]
            },
            {
              "id": 12,
              "order": "12.00000000000000000000",
              "field_161228": "Dolive Inc.",
              "field_161290": 15031,
              "field_161292": [
                12,
                28,
                30
              ],
              "field_161295": "events@dolive.com",
              "field_161296": "770-540-5704",
              "field_161297": "304 Lakeland Park Drive",
              "field_161298": "4500",
              "field_161299": "Gainesville",
              "field_161300": "Georgia",
              "field_161301": "30501",
              "field_161302": [
                5
              ],
              "field_162706": 15169,
              "field_162710": [
                {
                  "name": "WBRPpw5v3TdzV4LEkFBjyYMdoGcuLOUr_bf94bf46c6258c8f4f56a4a0be5537d335e21d7bfb3d13303369090e146352d9.png",
                  "visible_name": "Dolive Inc..png",
                  "original_name": "Dolive Inc..png"
                }
              ]
            },
            {
              "id": 13,
              "order": "13.00000000000000000000",
              "field_161228": "Benix Inc.",
              "field_161290": 15031,
              "field_161292": [
                13,
                31,
                32,
                33
              ],
              "field_161295": "info@benix.co",
              "field_161296": "516-534-6435",
              "field_161297": "3832 Stanley Avenue",
              "field_161298": "19500",
              "field_161299": "Garden City",
              "field_161300": "New York",
              "field_161301": "11530",
              "field_161302": [
                5,
                6
              ],
              "field_162706": 15166,
              "field_162710": [
                {
                  "name": "tJEU97DhAppIe5CMuD3foaB2VosEKoz8_8450e28dc4f59a21ec2f32b4a449b5030c1f35946e9bec0326c6e4c9f5fa6628.jpg",
                  "visible_name": "Benix Inc..jpg",
                  "original_name": "Benix Inc..jpg"
                }
              ]
            },
            {
              "id": 14,
              "order": "14.00000000000000000000",
              "field_161228": "Hypolium LLC",
              "field_161290": 15031,
              "field_161292": [
                14,
                34
              ],
              "field_161295": "hi@hypolium.com",
              "field_161296": "505-582-7219",
              "field_161297": "1095 Bird Street",
              "field_161298": "6500",
              "field_161299": "Vallecitos",
              "field_161300": "New Mexico",
              "field_161301": "87581",
              "field_161302": [
                5
              ],
              "field_162706": 15169,
              "field_162710": [
                {
                  "name": "PWwjjdLbUzVhwa7rm2WNJ1RdADlkzHqu_762db79911db7dd1ba5d3380ed71dd95d326fd6900451c06b4848f6dc3dd7e16.png",
                  "visible_name": "Hypolium LLC.png",
                  "original_name": "Hypolium LLC.png"
                }
              ]
            },
            {
              "id": 15,
              "order": "15.00000000000000000000",
              "field_161228": "Multify Inc.",
              "field_161290": 15031,
              "field_161292": [
                15,
                35
              ],
              "field_161295": "contact@multify.inc",
              "field_161296": "972-899-7410",
              "field_161297": "2700 Stoney Lane",
              "field_161298": "9000",
              "field_161299": "Frisco",
              "field_161300": "Texas",
              "field_161301": "75034",
              "field_161302": [
                3
              ],
              "field_162706": 15169,
              "field_162710": [
                {
                  "name": "Bg9in0ljVL0PXrK5mDNyY6uUXXYcouN0_7b3b23bcd7fd598e0458de3efb6eb89ffbe7eeb7dd2af7b3840effb0ca12b05d.png",
                  "visible_name": "Multify Inc..png",
                  "original_name": "Multify Inc..png"
                }
              ]
            },
            {
              "id": 16,
              "order": "16.00000000000000000000",
              "field_161228": "Camita Partners Ltd.",
              "field_161290": 15031,
              "field_161292": [
                16,
                36
              ],
              "field_161295": "hello@camitapartners.com",
              "field_161296": "334-421-0963",
              "field_161297": "4895 Fleming Street",
              "field_161298": "4000",
              "field_161299": "Sweet",
              "field_161300": "Idaho",
              "field_161301": "83670",
              "field_161302": [
                5,
                6
              ],
              "field_162706": 15167,
              "field_162710": [
                {
                  "name": "XmE2kvkcGXdcJcRTizyPo6xReLSQAHGv_2d6b0490972c698f9d529e01dc1c5bc1fc0e31a116d6fe17db20dd2d52da6078.png",
                  "visible_name": "Camita Partners Ltd..png",
                  "original_name": "Camita Partners Ltd..png"
                }
              ]
            }
          ]
        },
        {
          "id": 30389,
          "name": "Donations",
          "order": 2,
          "fields": [
            {
              "id": 161225,
              "type": "text",
              "name": "GUID",
              "order": 0,
              "primary": true,
              "text_default": ""
            },
            {
              "id": 161227,
              "type": "boolean",
              "name": "TY Note Sent",
              "order": 2,
              "primary": false
            },
            {
              "id": 161291,
              "type": "link_row",
              "name": "Donor",
              "order": 3,
              "primary": false,
              "link_row_table_id": 30390,
              "link_row_related_field_id": 161292
            },
            {
              "id": 161293,
              "type": "number",
              "name": "Amount",
              "order": 4,
              "primary": false,
              "number_decimal_places": 0,
              "number_negative": false
            },
            {
              "id": 161294,
              "type": "date",
              "name": "Donation Date",
              "order": 5,
              "primary": false,
              "date_format": "ISO",
              "date_include_time": false,
              "date_time_format": "24"
            },
            {
              "id": 195842,
              "type": "multiple_select",
              "name": "Fund Allocation",
              "order": 6,
              "primary": false,
              "select_options": [
                {
                  "id": 21111,
                  "value": "Organizer salaries",
                  "color": "dark-gray",
                  "order": 0
                },
                {
                  "id": 21112,
                  "value": "Website",
                  "color": "dark-blue",
                  "order": 1
                },
                {
                  "id": 21113,
                  "value": "Marketing",
                  "color": "dark-red",
                  "order": 2
                },
                {
                  "id": 21114,
                  "value": "Lobbying",
                  "color": "green",
                  "order": 3
                },
                {
                  "id": 21115,
                  "value": "Charity",
                  "color": "dark-orange",
                  "order": 4
                }
              ]
            }
          ],
          "views": [
            {
              "id": 34340,
              "type": "grid",
              "name": "All Donations",
              "order": 1,
              "filter_type": "AND",
              "filters_disabled": false,
              "filters": [],
              "sortings": [
                {
                  "id": 3406,
                  "field_id": 161294,
                  "order": "ASC"
                }
              ],
              "field_options": [
                {
                  "id": 169469,
                  "field_id": 161225,
                  "width": 310,
                  "hidden": false,
                  "order": 4
                },
                {
                  "id": 169468,
                  "field_id": 161227,
                  "width": 141,
                  "hidden": false,
                  "order": 3
                },
                {
                  "id": 169530,
                  "field_id": 161291,
                  "width": 178,
                  "hidden": false,
                  "order": 0
                },
                {
                  "id": 169532,
                  "field_id": 161293,
                  "width": 117,
                  "hidden": false,
                  "order": 1
                },
                {
                  "id": 169533,
                  "field_id": 161294,
                  "width": 150,
                  "hidden": false,
                  "order": 2
                },
                {
                  "id": 217487,
                  "field_id": 195842,
                  "width": 224,
                  "hidden": false,
                  "order": 32767
                }
              ]
            },
            {
              "id": 35303,
              "type": "grid",
              "name": "High Value",
              "order": 2,
              "filter_type": "AND",
              "filters_disabled": false,
              "filters": [
                {
                  "id": 7251,
                  "field_id": 161293,
                  "type": "higher_than",
                  "value": "3000"
                }
              ],
              "sortings": [
                {
                  "id": 3405,
                  "field_id": 161293,
                  "order": "DESC"
                }
              ],
              "field_options": [
                {
                  "id": 175759,
                  "field_id": 161225,
                  "width": 303,
                  "hidden": false,
                  "order": 4
                },
                {
                  "id": 175760,
                  "field_id": 161227,
                  "width": 142,
                  "hidden": false,
                  "order": 3
                },
                {
                  "id": 175761,
                  "field_id": 161291,
                  "width": 132,
                  "hidden": false,
                  "order": 0
                },
                {
                  "id": 175762,
                  "field_id": 161293,
                  "width": 118,
                  "hidden": false,
                  "order": 1
                },
                {
                  "id": 175763,
                  "field_id": 161294,
                  "width": 151,
                  "hidden": false,
                  "order": 2
                },
                {
                  "id": 217488,
                  "field_id": 195842,
                  "width": 200,
                  "hidden": false,
                  "order": 32767
                }
              ]
            },
            {
              "id": 42222,
              "type": "grid",
              "name": "Internal funding",
              "order": 3,
              "filter_type": "OR",
              "filters_disabled": false,
              "filters": [
                {
                  "id": 9562,
                  "field_id": 195842,
                  "type": "multiple_select_has",
                  "value": "21111"
                },
                {
                  "id": 9563,
                  "field_id": 195842,
                  "type": "multiple_select_has",
                  "value": "21112"
                },
                {
                  "id": 9564,
                  "field_id": 195842,
                  "type": "multiple_select_has",
                  "value": "21113"
                }
              ],
              "sortings": [
                {
                  "id": 5048,
                  "field_id": 161294,
                  "order": "ASC"
                }
              ],
              "field_options": [
                {
                  "id": 217489,
                  "field_id": 161225,
                  "width": 301,
                  "hidden": false,
                  "order": 5
                },
                {
                  "id": 217490,
                  "field_id": 161227,
                  "width": 141,
                  "hidden": false,
                  "order": 3
                },
                {
                  "id": 217491,
                  "field_id": 161291,
                  "width": 154,
                  "hidden": false,
                  "order": 0
                },
                {
                  "id": 217492,
                  "field_id": 161293,
                  "width": 112,
                  "hidden": false,
                  "order": 1
                },
                {
                  "id": 217493,
                  "field_id": 161294,
                  "width": 156,
                  "hidden": false,
                  "order": 2
                },
                {
                  "id": 217494,
                  "field_id": 195842,
                  "width": 226,
                  "hidden": false,
                  "order": 4
                }
              ]
            },
            {
              "id": 42223,
              "type": "grid",
              "name": "Charity",
              "order": 4,
              "filter_type": "AND",
              "filters_disabled": false,
              "filters": [
                {
                  "id": 9565,
                  "field_id": 195842,
                  "type": "multiple_select_has",
                  "value": "21115"
                }
              ],
              "sortings": [
                {
                  "id": 5047,
                  "field_id": 161294,
                  "order": "ASC"
                }
              ],
              "field_options": [
                {
                  "id": 217495,
                  "field_id": 161225,
                  "width": 301,
                  "hidden": false,
                  "order": 5
                },
                {
                  "id": 217496,
                  "field_id": 161227,
                  "width": 142,
                  "hidden": false,
                  "order": 3
                },
                {
                  "id": 217497,
                  "field_id": 161291,
                  "width": 123,
                  "hidden": false,
                  "order": 0
                },
                {
                  "id": 217498,
                  "field_id": 161293,
                  "width": 117,
                  "hidden": false,
                  "order": 1
                },
                {
                  "id": 217499,
                  "field_id": 161294,
                  "width": 156,
                  "hidden": false,
                  "order": 2
                },
                {
                  "id": 217500,
                  "field_id": 195842,
                  "width": 207,
                  "hidden": false,
                  "order": 4
                }
              ]
            }
          ],
          "rows": [
            {
              "id": 1,
              "order": "1.00000000000000000000",
              "field_161225": "1E08ED1E-7C28-34E8-EC10-D48D7DA7FD3F",
              "field_161227": "true",
              "field_161291": [
                1
              ],
              "field_161293": "300",
              "field_161294": "2021-03-02",
              "field_195842": [
                21111,
                21113
              ]
            },
            {
              "id": 2,
              "order": "2.00000000000000000000",
              "field_161225": "EA8DC3FC-D358-C50C-1762-83253B155C14",
              "field_161227": "false",
              "field_161291": [
                2
              ],
              "field_161293": "450",
              "field_161294": "2021-03-04",
              "field_195842": [
                21114,
                21112
              ]
            },
            {
              "id": 3,
              "order": "3.00000000000000000000",
              "field_161225": "C29EAEC4-B315-24AD-5815-12FB67F50B9D",
              "field_161227": "true",
              "field_161291": [
                3
              ],
              "field_161293": "50",
              "field_161294": "2021-03-18",
              "field_195842": [
                21111
              ]
            },
            {
              "id": 4,
              "order": "4.00000000000000000000",
              "field_161225": "2C67F586-8257-AF0B-246F-A8B85FB2C7B9",
              "field_161227": "false",
              "field_161291": [
                4
              ],
              "field_161293": "525",
              "field_161294": "2021-05-12",
              "field_195842": [
                21112,
                21114
              ]
            },
            {
              "id": 5,
              "order": "5.00000000000000000000",
              "field_161225": "A6B501AC-78B2-2025-F7AE-F64F3203CE96",
              "field_161227": "false",
              "field_161291": [
                5
              ],
              "field_161293": "900",
              "field_161294": "2021-04-29",
              "field_195842": [
                21111
              ]
            },
            {
              "id": 6,
              "order": "6.00000000000000000000",
              "field_161225": "89075F05-E87A-80B9-4BDB-4B369E81012F",
              "field_161227": "false",
              "field_161291": [
                6
              ],
              "field_161293": "150",
              "field_161294": "2021-05-30",
              "field_195842": [
                21114
              ]
            },
            {
              "id": 7,
              "order": "7.00000000000000000000",
              "field_161225": "AD29C121-D4BA-9421-8E3D-9E5037DE83DC",
              "field_161227": "true",
              "field_161291": [
                7
              ],
              "field_161293": "150",
              "field_161294": "2021-06-09",
              "field_195842": [
                21111
              ]
            },
            {
              "id": 8,
              "order": "8.00000000000000000000",
              "field_161225": "68D57FB4-321B-FED2-68B9-5B210E1A5AA0",
              "field_161227": "true",
              "field_161291": [
                8
              ],
              "field_161293": "250",
              "field_161294": "2021-06-01",
              "field_195842": [
                21114,
                21112
              ]
            },
            {
              "id": 9,
              "order": "9.00000000000000000000",
              "field_161225": "9239585E-8F89-4D13-679C-A81BE418D025",
              "field_161227": "false",
              "field_161291": [
                9
              ],
              "field_161293": "800",
              "field_161294": "2021-06-20",
              "field_195842": [
                21113
              ]
            },
            {
              "id": 10,
              "order": "10.00000000000000000000",
              "field_161225": "82068649-B26D-D5DB-5B8E-C3BCD56D3D23",
              "field_161227": "true",
              "field_161291": [
                10
              ],
              "field_161293": "1000",
              "field_161294": "2021-05-31",
              "field_195842": [
                21111,
                21115
              ]
            },
            {
              "id": 11,
              "order": "11.00000000000000000000",
              "field_161225": "537F508C-0206-38DF-59F9-BF1ACDF20409",
              "field_161227": "true",
              "field_161291": [
                11
              ],
              "field_161293": "4000",
              "field_161294": "2021-06-27",
              "field_195842": [
                21111
              ]
            },
            {
              "id": 12,
              "order": "12.00000000000000000000",
              "field_161225": "C4F9251D-195D-C6F8-4F26-FC20DFBDBC2A",
              "field_161227": "true",
              "field_161291": [
                12
              ],
              "field_161293": "3500",
              "field_161294": "2021-06-21",
              "field_195842": [
                21111
              ]
            },
            {
              "id": 13,
              "order": "13.00000000000000000000",
              "field_161225": "98D53BC3-19D9-A87D-15D2-2B3F2132EABA",
              "field_161227": "true",
              "field_161291": [
                13
              ],
              "field_161293": "15000",
              "field_161294": "2021-06-06",
              "field_195842": [
                21111,
                21115
              ]
            },
            {
              "id": 14,
              "order": "14.00000000000000000000",
              "field_161225": "D6C345E6-9FBE-94AC-2BA5-BDC0F7382AD7",
              "field_161227": "true",
              "field_161291": [
                14
              ],
              "field_161293": "6500",
              "field_161294": "2021-07-02",
              "field_195842": [
                21112
              ]
            },
            {
              "id": 15,
              "order": "15.00000000000000000000",
              "field_161225": "DB5DB03C-39D6-D289-A080-918F6E4CD523",
              "field_161227": "true",
              "field_161291": [
                15
              ],
              "field_161293": "7000",
              "field_161294": "2021-07-06",
              "field_195842": [
                21115
              ]
            },
            {
              "id": 16,
              "order": "16.00000000000000000000",
              "field_161225": "7CF623E1-F808-C317-E3BE-23B357B16956",
              "field_161227": "false",
              "field_161291": [
                16
              ],
              "field_161293": "1500",
              "field_161294": "2021-07-11",
              "field_195842": [
                21111
              ]
            },
            {
              "id": 17,
              "order": "17.00000000000000000000",
              "field_161225": "712D7540-72D4-C780-B7AC-E5C6B20E4E30",
              "field_161227": "true",
              "field_161291": [
                1
              ],
              "field_161293": "600",
              "field_161294": "2021-07-11",
              "field_195842": [
                21111
              ]
            },
            {
              "id": 18,
              "order": "18.00000000000000000000",
              "field_161225": "85849A26-6946-8AFD-62B0-B62D0748903E",
              "field_161227": "false",
              "field_161291": [
                2
              ],
              "field_161293": "400",
              "field_161294": "2021-08-20",
              "field_195842": [
                21113,
                21115
              ]
            },
            {
              "id": 19,
              "order": "19.00000000000000000000",
              "field_161225": "FD81A6DA-410A-D45D-5AFE-FC8B8B56CAB3",
              "field_161227": "true",
              "field_161291": [
                3
              ],
              "field_161293": "500",
              "field_161294": "2021-08-11",
              "field_195842": [
                21113
              ]
            },
            {
              "id": 20,
              "order": "20.00000000000000000000",
              "field_161225": "84925C52-D4E5-8C42-6291-3ED8096F9E40",
              "field_161227": "true",
              "field_161291": [
                4
              ],
              "field_161293": "2000",
              "field_161294": "2021-08-17",
              "field_195842": [
                21114,
                21111
              ]
            },
            {
              "id": 21,
              "order": "21.00000000000000000000",
              "field_161225": "195A49FA-FC86-6D82-AE80-385A539CD37F",
              "field_161227": "true",
              "field_161291": [
                5
              ],
              "field_161293": "300",
              "field_161294": "2021-08-18",
              "field_195842": [
                21114
              ]
            },
            {
              "id": 22,
              "order": "22.00000000000000000000",
              "field_161225": "D4C460FC-3603-6A1F-6180-F38281A4A0C8",
              "field_161227": "false",
              "field_161291": [
                6
              ],
              "field_161293": "500",
              "field_161294": "2021-08-28",
              "field_195842": [
                21115
              ]
            },
            {
              "id": 23,
              "order": "23.00000000000000000000",
              "field_161225": "48A2C3A5-D7C5-A2F2-3924-60AEC01F528B",
              "field_161227": "false",
              "field_161291": [
                7
              ],
              "field_161293": "300",
              "field_161294": "2021-09-03",
              "field_195842": [
                21111
              ]
            },
            {
              "id": 24,
              "order": "24.00000000000000000000",
              "field_161225": "45E6DED0-2308-3F25-56B5-F37BA05A1D48",
              "field_161227": "true",
              "field_161291": [
                8
              ],
              "field_161293": "500",
              "field_161294": "2021-09-05",
              "field_195842": [
                21111
              ]
            },
            {
              "id": 25,
              "order": "25.00000000000000000000",
              "field_161225": "1293BA78-C3E8-7B14-F24F-C6AE129EB104",
              "field_161227": "true",
              "field_161291": [
                9
              ],
              "field_161293": "300",
              "field_161294": "2021-09-07",
              "field_195842": [
                21113
              ]
            },
            {
              "id": 26,
              "order": "26.00000000000000000000",
              "field_161225": "43AF5F18-9BDB-EF30-48A2-9F2FABEDF0B8",
              "field_161227": "true",
              "field_161291": [
                10
              ],
              "field_161293": "300",
              "field_161294": "2021-09-18",
              "field_195842": [
                21111
              ]
            },
            {
              "id": 27,
              "order": "27.00000000000000000000",
              "field_161225": "6CBFEDF9-6406-168C-C0F8-5F2018DF694F",
              "field_161227": "false",
              "field_161291": [
                11
              ],
              "field_161293": "2000",
              "field_161294": "2021-09-17",
              "field_195842": [
                21113
              ]
            },
            {
              "id": 28,
              "order": "28.00000000000000000000",
              "field_161225": "EBE37E63-EC14-5A05-EB3A-F60F1817DF1D",
              "field_161227": "true",
              "field_161291": [
                12
              ],
              "field_161293": "500",
              "field_161294": "2021-09-06",
              "field_195842": [
                21111
              ]
            },
            {
              "id": 29,
              "order": "29.00000000000000000000",
              "field_161225": "1A701847-8FEC-7FAD-DA6A-B17A50CEB79E",
              "field_161227": "true",
              "field_161291": [
                3
              ],
              "field_161293": "300",
              "field_161294": "2021-08-28",
              "field_195842": [
                21111
              ]
            },
            {
              "id": 30,
              "order": "30.00000000000000000000",
              "field_161225": "4356A54C-37B2-46CB-B9FE-6757FBF3BE85",
              "field_161227": "true",
              "field_161291": [
                12
              ],
              "field_161293": "500",
              "field_161294": "2021-08-31",
              "field_195842": [
                21111
              ]
            },
            {
              "id": 31,
              "order": "31.00000000000000000000",
              "field_161225": "5863F31F-BFB0-1BD6-9D1F-9D831A1CE7F7",
              "field_161227": "false",
              "field_161291": [
                13
              ],
              "field_161293": "2000",
              "field_161294": "2021-08-17",
              "field_195842": [
                21111
              ]
            },
            {
              "id": 32,
              "order": "32.00000000000000000000",
              "field_161225": "5807B48F-2F57-FAE9-E081-6DC35C971C3E",
              "field_161227": "true",
              "field_161291": [
                13
              ],
              "field_161293": "2000",
              "field_161294": "2021-07-02",
              "field_195842": [
                21111
              ]
            },
            {
              "id": 33,
              "order": "33.00000000000000000000",
              "field_161225": "7DA37413-4AE0-D05C-5E09-82A657F4F597",
              "field_161227": "true",
              "field_161291": [
                13
              ],
              "field_161293": "500",
              "field_161294": "2021-06-20",
              "field_195842": [
                21114
              ]
            },
            {
              "id": 34,
              "order": "34.00000000000000000000",
              "field_161225": "B7A7863C-CC6E-B7D2-B979-10732DC96ACB",
              "field_161227": "true",
              "field_161291": [
                14
              ],
              "field_161293": "500",
              "field_161294": "2021-04-29",
              "field_195842": [
                21111,
                21115
              ]
            },
            {
              "id": 35,
              "order": "35.00000000000000000000",
              "field_161225": "7B02E892-9BAD-81FC-CADB-809419878D66",
              "field_161227": "true",
              "field_161291": [
                15
              ],
              "field_161293": "2000",
              "field_161294": "2021-08-28",
              "field_195842": [
                21111
              ]
            },
            {
              "id": 36,
              "order": "36.00000000000000000000",
              "field_161225": "F274AFBE-370E-C2A4-A36E-18C274A31B7B",
              "field_161227": "false",
              "field_161291": [
                16
              ],
              "field_161293": "2500",
              "field_161294": "2021-09-18",
              "field_195842": [
                21111
              ]
            },
            {
              "id": 37,
              "order": "37.00000000000000000000",
              "field_161225": "FD6898EF-3FEB-FAC8-4E9F-95C390DB1723",
              "field_161227": "true",
              "field_161291": [
                7
              ],
              "field_161293": "500",
              "field_161294": "2021-09-05",
              "field_195842": [
                21114
              ]
            },
            {
              "id": 38,
              "order": "38.00000000000000000000",
              "field_161225": "130FC16F-AF64-F47C-570C-7EB20B7D1537",
              "field_161227": "true",
              "field_161291": [
                9
              ],
              "field_161293": "300",
              "field_161294": "2021-08-17",
              "field_195842": [
                21114
              ]
            },
            {
              "id": 39,
              "order": "39.00000000000000000000",
              "field_161225": "F3B1C5E5-8A69-D8C5-9DA1-8D528906F8F9",
              "field_161227": "true",
              "field_161291": [
                10
              ],
              "field_161293": "300",
              "field_161294": "2021-06-09",
              "field_195842": [
                21111
              ]
            },
            {
              "id": 40,
              "order": "40.00000000000000000000",
              "field_161225": "308CE356-FB68-84DE-DCA3-75FA29479CD3",
              "field_161227": "true",
              "field_161291": [
                9
              ],
              "field_161293": "300",
              "field_161294": "2021-08-17",
              "field_195842": [
                21111
              ]
            }
          ]
        },
        {
          "id": 30391,
          "name": "Channels",
          "order": 3,
          "fields": [
            {
              "id": 161231,
              "type": "text",
              "name": "Name",
              "order": 0,
              "primary": true,
              "text_default": ""
            },
            {
              "id": 161232,
              "type": "long_text",
              "name": "Notes",
              "order": 1,
              "primary": false
            },
            {
              "id": 161303,
              "type": "link_row",
              "name": "Contacts",
              "order": 3,
              "primary": false,
              "link_row_table_id": 30390,
              "link_row_related_field_id": 161302
            }
          ],
          "views": [
            {
              "id": 34342,
              "type": "grid",
              "name": "All Channels",
              "order": 1,
              "filter_type": "AND",
              "filters_disabled": false,
              "filters": [],
              "sortings": [],
              "field_options": [
                {
                  "id": 169475,
                  "field_id": 161231,
                  "width": 132,
                  "hidden": false,
                  "order": 32767
                },
                {
                  "id": 169473,
                  "field_id": 161232,
                  "width": 629,
                  "hidden": false,
                  "order": 32767
                },
                {
                  "id": 169542,
                  "field_id": 161303,
                  "width": 566,
                  "hidden": false,
                  "order": 32767
                }
              ]
            }
          ],
          "rows": [
            {
              "id": 1,
              "order": "1.00000000000000000000",
              "field_161231": "Website",
              "field_161232": "Need to work on increasing CTR.",
              "field_161303": [
                1,
                7
              ]
            },
            {
              "id": 2,
              "order": "2.00000000000000000000",
              "field_161231": "Affiliate Program",
              "field_161232": "Our KPIs aren't being properly measured, so take them with a grain of salt until further notice.",
              "field_161303": [
                2
              ]
            },
            {
              "id": 3,
              "order": "3.00000000000000000000",
              "field_161231": "Email",
              "field_161232": "Usually performs better during the week as opposed to weekends.",
              "field_161303": [
                3,
                4,
                9,
                15,
                11
              ]
            },
            {
              "id": 4,
              "order": "4.00000000000000000000",
              "field_161231": "Social Media",
              "field_161232": "Includes all of our social channels.",
              "field_161303": [
                5,
                8,
                10
              ]
            },
            {
              "id": 5,
              "order": "5.00000000000000000000",
              "field_161231": "In-person Event",
              "field_161232": "By far the most effective channel for donations, but also requires the most planning and resources.",
              "field_161303": [
                6,
                13,
                12,
                16,
                14
              ]
            },
            {
              "id": 6,
              "order": "6.00000000000000000000",
              "field_161231": "Phone",
              "field_161232": "Ah, the ol' cold-call strategy. Or warm calling. Still works!",
              "field_161303": [
                8,
                4,
                10,
                13,
                16
              ]
            }
          ]
        }
      ]
    }
  ]
}
